…
read_delim(f[1], col_names = c("text", "position", "taxon")) %>%
  mutate(file = basename(f[1]))
```

    ## Rows: 92 Columns: 3
    ## ── Column specification ─────────────────────────────────────────────────────────
    ## Delimiter: "\t"
    ## chr (3): text, position, taxon
    ## 
    ## ℹ Use `spec()` to retrieve the full column specification for this data.
    ## ℹ Specify the column types or set `show_col_types = FALSE` to quiet this message.

    ## # A tibble: 92 × 4
    ##    text  position       taxon                  file                            
    ##    <chr> <chr>          <chr>                  <chr>                           
    ##  1 T0    LIVB 1217 1227 Padina sp.             10.1371_journal.pone.0064651.ann
    ##  2 T1    LIVB 1229 1241 Amphiroa sp.           10.1371_journal.pone.0064651.ann
    ##  3 T2    LIVB 1246 1260 Turbinaria sp.         10.1371_journal.pone.0064651.ann
    ##  4 T3    LIVB 6439 6461 Lithothamnion glaciale 10.1371_journal.pone.0064651.ann
    ##  5 T4    LIVB 6673 6684 L. glaciale            10.1371_journal.pone.0064651.ann
    ##  6 T5    LIVB 6850 6872 Lithophyllum cabiochae 10.1371_journal.pone.0064651.ann
    ##  7 T6    LIVB 7037 7050 Corallinaceae          10.1371_journal.pone.0064651.ann
    ##  8 T7    LIVB 7297 7311 coralline alga         10.1371_journal.pone.0064651.ann
    ##  9 T8    LIVB 7312 7330 Corallina sessilis     10.1371_journal.pone.0064651.ann
    ## 10 T9    LIVB 7456 7462 Padina                 10.1371_journal.pone.0064651.ann
    ## # … with 82 more rows
…
