Using the semantic scholar API in R
…
result <- semanticscholar::S2_search_papers(search, limit = 100)

result

$total
[1] 1221

$offset
[1] 0

$`next`
[1] 100

$data
# A tibble: 100 × 2
   paperId                                  title                               
 * <chr>                                    <chr>                               
 1 fbfcb9ad9135471a6135e99442b740db0fe8d6e7 Climate affects neighbour-induced c…
 2 0377d9719f52d03f186abb3a2010d985191223d0 Climate, Land use and Plant Richnes…
 3 78e45f7368cb7f344b4a11117b92b6fce80621dd Synergistic effects of insect herbi…
 4 a9ce39a660c48a3602c00296d5d8f24ea14ecb10 Potential of Climate Change and Her…
 5 806f9a8fbfe224aaa08e1407ef9137edfddb6763 When ‘Higher’ means ‘Hungrier’: Cli…
 6 16e220c74ab95d69c96a34e1cd79adeb03390bce Asymmetric Responses to Climate Cha…
 7 7a1a77e19ea54e29ddf0b3da394fbe7d9fc999d2 Herbivory and climate as drivers of…
 8 79e72023dd60738eae0c57ae061cffa4f51502a1 Mammalian herbivory shapes intraspe…
 9 61701558493798b3ef9525105384840031bcc19b Dynamic effects of insect herbivory…
10 44ab5396ac4ef4dd865f8c1875ee27f46f68fcc9 Potential for an Impact of Global C…
# … with 90 more rows
…
