Visualising herbivory and climate change literature
…
We might want to compare frequencies across multiple variables, for example

Code

## lets create a frequency table of the number of breeds mentioned in studes for each herbivore group

grouped <- data |>
  select(contains("vine")) |>
  pivot_longer(names_to = "herbivore", values_to = "breed", cols = 1:6) |>
  group_by(herbivore) |>
  count(breed)

grouped

# A tibble: 32 × 3
# Groups:   herbivore [6]
   herbivore    breed                             n
   <chr>        <chr>                         <int>
 1 cows_bovine  "-Aberdeen Angus"                 1
 2 cows_bovine  "-Aberdeen Angus X Limousin"      2
 3 cows_bovine  "-Breed not stated"               6
 4 cows_bovine  "-Charolais"                      1
 5 cows_bovine  "-Holstein Fresian"               8
 6 cows_bovine  "-Limousin X"                     4
 7 cows_bovine  "-Limousin X\r\n-Welsh Black"     1
 8 cows_bovine   <NA>                            22
 9 cows_bovines "-Aberdeen Angus"                 1
10 cows_bovines "-Belted Galloway"                1
# … with 22 more rows
…
